{
  "host": "localhost",
  "port": 3030,
  "mongodb": "mongodb://localhost:27017/debitech",
  "public": "../public/",
  "auth": {
    "token": {
      "secret": "PsKbnjpTCev3+x29vzmAgFQ4aer35ouA7qGwykvANoq4mYdOrx92lpdh09AEQOeB8mjZrGgYisz6Xr8Yffv5jw=="
    },
    "local": {}
  }
}
